(kicad_pcb (version 4) (host pcbnew 4.0.2+dfsg1-stable)

  (general
    (links 4)
    (no_connects 0)
    (area 138.375 97.924999 152.975 112.108333)
    (thickness 1.6)
    (drawings 5)
    (tracks 8)
    (zones 0)
    (modules 2)
    (nets 5)
  )

  (page A4)
  (layers
    (0 F.Cu signal)
    (31 B.Cu signal)
    (32 B.Adhes user)
    (33 F.Adhes user)
    (34 B.Paste user)
    (35 F.Paste user)
    (36 B.SilkS user)
    (37 F.SilkS user)
    (38 B.Mask user)
    (39 F.Mask user)
    (40 Dwgs.User user)
    (41 Cmts.User user)
    (42 Eco1.User user)
    (43 Eco2.User user)
    (44 Edge.Cuts user)
    (45 Margin user)
    (46 B.CrtYd user)
    (47 F.CrtYd user)
    (48 B.Fab user)
    (49 F.Fab user)
  )

  (setup
    (last_trace_width 0.25)
    (trace_clearance 0.2)
    (zone_clearance 0.254)
    (zone_45_only no)
    (trace_min 0.2)
    (segment_width 0.2)
    (edge_width 0.15)
    (via_size 0.6)
    (via_drill 0.4)
    (via_min_size 0.4)
    (via_min_drill 0.3)
    (uvia_size 0.3)
    (uvia_drill 0.1)
    (uvias_allowed no)
    (uvia_min_size 0.2)
    (uvia_min_drill 0.1)
    (pcb_text_width 0.3)
    (pcb_text_size 1.5 1.5)
    (mod_edge_width 0.15)
    (mod_text_size 1 1)
    (mod_text_width 0.15)
    (pad_size 1.524 1.524)
    (pad_drill 0.762)
    (pad_to_mask_clearance 0.2)
    (aux_axis_origin 0 0)
    (visible_elements FFFFFF7F)
    (pcbplotparams
      (layerselection 0x00030_80000001)
      (usegerberextensions false)
      (excludeedgelayer true)
      (linewidth 0.150000)
      (plotframeref false)
      (viasonmask false)
      (mode 1)
      (useauxorigin false)
      (hpglpennumber 1)
      (hpglpenspeed 20)
      (hpglpendiameter 15)
      (hpglpenoverlay 2)
      (psnegative false)
      (psa4output false)
      (plotreference true)
      (plotvalue true)
      (plotinvisibletext false)
      (padsonsilk false)
      (subtractmaskfromsilk false)
      (outputformat 1)
      (mirror false)
      (drillshape 1)
      (scaleselection 1)
      (outputdirectory ""))
  )

  (net 0 "")
  (net 1 "Net-(L1-Pad1)")
  (net 2 "Net-(L1-Pad2)")
  (net 3 "Net-(L1-Pad3)")
  (net 4 "Net-(L1-Pad4)")

  (net_class Default "This is the default net class."
    (clearance 0.2)
    (trace_width 0.25)
    (via_dia 0.6)
    (via_drill 0.4)
    (uvia_dia 0.3)
    (uvia_drill 0.1)
    (add_net "Net-(L1-Pad1)")
    (add_net "Net-(L1-Pad2)")
    (add_net "Net-(L1-Pad3)")
    (add_net "Net-(L1-Pad4)")
  )

  (module "Crafting labs:strip_input" (layer F.Cu) (tedit 5A9193D3) (tstamp 5A29A706)
    (at 143.5 105)
    (path /5A270EAB)
    (fp_text reference L1 (at -1.75 -3 90) (layer F.SilkS)
      (effects (font (size 0.75 0.75) (thickness 0.1)))
    )
    (fp_text value strip_input (at -4 -2 90) (layer F.Fab)
      (effects (font (size 1 1) (thickness 0.15)))
    )
    (fp_line (start 2.5 -6.5) (end 2.5 6.5) (layer F.SilkS) (width 0.15))
    (fp_line (start 2.5 6.5) (end -2.5 6.5) (layer F.SilkS) (width 0.15))
    (fp_line (start -2.5 6.5) (end -2.5 -6.5) (layer F.SilkS) (width 0.15))
    (fp_line (start -2.5 -6.5) (end 2.5 -6.5) (layer F.SilkS) (width 0.15))
    (pad 1 smd rect (at 0 -4.5) (size 2 2) (layers F.Cu F.Paste F.Mask)
      (net 1 "Net-(L1-Pad1)"))
    (pad 2 smd rect (at 0 -1.5) (size 2 2) (layers F.Cu F.Paste F.Mask)
      (net 2 "Net-(L1-Pad2)"))
    (pad 3 smd rect (at 0 1.5) (size 2 2) (layers F.Cu F.Paste F.Mask)
      (net 3 "Net-(L1-Pad3)"))
    (pad 4 smd rect (at 0 4.5) (size 2 2) (layers F.Cu F.Paste F.Mask)
      (net 4 "Net-(L1-Pad4)"))
  )

  (module Pin_Headers:Pin_Header_Straight_1x04 (layer F.Cu) (tedit 5A9193C1) (tstamp 5A29A719)
    (at 147.75 101.25)
    (descr "Through hole pin header")
    (tags "pin header")
    (path /5A299F34)
    (fp_text reference P1 (at -1.75 3.75 90) (layer F.SilkS)
      (effects (font (size 0.75 0.75) (thickness 0.1)))
    )
    (fp_text value CONN_01X04 (at 3.5 5 90) (layer F.Fab)
      (effects (font (size 1 1) (thickness 0.15)))
    )
    (fp_line (start -1.75 -1.75) (end -1.75 9.4) (layer F.CrtYd) (width 0.05))
    (fp_line (start 1.75 -1.75) (end 1.75 9.4) (layer F.CrtYd) (width 0.05))
    (fp_line (start -1.75 -1.75) (end 1.75 -1.75) (layer F.CrtYd) (width 0.05))
    (fp_line (start -1.75 9.4) (end 1.75 9.4) (layer F.CrtYd) (width 0.05))
    (fp_line (start -1.27 1.27) (end -1.27 8.89) (layer F.SilkS) (width 0.15))
    (fp_line (start 1.27 1.27) (end 1.27 8.89) (layer F.SilkS) (width 0.15))
    (fp_line (start 1.55 -1.55) (end 1.55 0) (layer F.SilkS) (width 0.15))
    (fp_line (start -1.27 8.89) (end 1.27 8.89) (layer F.SilkS) (width 0.15))
    (fp_line (start 1.27 1.27) (end -1.27 1.27) (layer F.SilkS) (width 0.15))
    (fp_line (start -1.55 0) (end -1.55 -1.55) (layer F.SilkS) (width 0.15))
    (fp_line (start -1.55 -1.55) (end 1.55 -1.55) (layer F.SilkS) (width 0.15))
    (pad 1 thru_hole rect (at 0 0) (size 2.032 1.7272) (drill 1.016) (layers *.Cu *.Mask F.SilkS)
      (net 1 "Net-(L1-Pad1)"))
    (pad 2 thru_hole oval (at 0 2.54) (size 2.032 1.7272) (drill 1.016) (layers *.Cu *.Mask F.SilkS)
      (net 2 "Net-(L1-Pad2)"))
    (pad 3 thru_hole oval (at 0 5.08) (size 2.032 1.7272) (drill 1.016) (layers *.Cu *.Mask F.SilkS)
      (net 3 "Net-(L1-Pad3)"))
    (pad 4 thru_hole oval (at 0 7.62) (size 2.032 1.7272) (drill 1.016) (layers *.Cu *.Mask F.SilkS)
      (net 4 "Net-(L1-Pad4)"))
    (model Pin_Headers.3dshapes/Pin_Header_Straight_1x04.wrl
      (at (xyz 0 -0.15 0))
      (scale (xyz 1 1 1))
      (rotate (xyz 0 0 90))
    )
  )

  (gr_text "Crafting Labs\nRainbow Clock\nv1.0" (at 143.5 105 90) (layer B.SilkS)
    (effects (font (size 1 1) (thickness 0.05)) (justify mirror))
  )
  (gr_line (start 149.5 99.25) (end 140.5 99.25) (angle 90) (layer Edge.Cuts) (width 0.15))
  (gr_line (start 140.5 110.75) (end 149.5 110.75) (angle 90) (layer Edge.Cuts) (width 0.15))
  (gr_line (start 149.5 99.25) (end 149.5 110.75) (angle 90) (layer Edge.Cuts) (width 0.15))
  (gr_line (start 140.5 99.25) (end 140.5 110.75) (angle 90) (layer Edge.Cuts) (width 0.15))

  (segment (start 143.5 100.5) (end 147 100.5) (width 0.25) (layer F.Cu) (net 1) (status C00000))
  (segment (start 147 100.5) (end 147.75 101.25) (width 0.25) (layer F.Cu) (net 1) (tstamp 5A919A63) (status C00000))
  (segment (start 143.5 103.5) (end 147.46 103.5) (width 0.25) (layer F.Cu) (net 2) (status C00000))
  (segment (start 147.46 103.5) (end 147.75 103.79) (width 0.25) (layer F.Cu) (net 2) (tstamp 5A919A60) (status C00000))
  (segment (start 143.5 106.5) (end 147.58 106.5) (width 0.25) (layer F.Cu) (net 3) (status C00000))
  (segment (start 147.58 106.5) (end 147.75 106.33) (width 0.25) (layer F.Cu) (net 3) (tstamp 5A919A5D) (status C00000))
  (segment (start 143.5 109.5) (end 147.12 109.5) (width 0.25) (layer F.Cu) (net 4) (status C00000))
  (segment (start 147.12 109.5) (end 147.75 108.87) (width 0.25) (layer F.Cu) (net 4) (tstamp 5A919A5A) (status C00000))

  (zone (net 0) (net_name "") (layer B.Cu) (tstamp 5A9196B9) (hatch edge 0.508)
    (connect_pads (clearance 0.254))
    (min_thickness 0.254)
    (fill yes (arc_segments 16) (thermal_gap 0.508) (thermal_bridge_width 0.508))
    (polygon
      (pts
        (xy 149.5 110.75) (xy 140.5 110.75) (xy 140.5 99.25) (xy 149.5 99.25) (xy 149.5 110.75)
      )
    )
    (filled_polygon
      (pts
        (xy 149.044 100.115225) (xy 148.917134 100.028541) (xy 148.766 99.997936) (xy 146.734 99.997936) (xy 146.59281 100.024503)
        (xy 146.463135 100.107946) (xy 146.376141 100.235266) (xy 146.345536 100.3864) (xy 146.345536 102.1136) (xy 146.372103 102.25479)
        (xy 146.455546 102.384465) (xy 146.582866 102.471459) (xy 146.734 102.502064) (xy 148.766 102.502064) (xy 148.90719 102.475497)
        (xy 149.036865 102.392054) (xy 149.044 102.381612) (xy 149.044 103.260389) (xy 148.809834 102.909935) (xy 148.406057 102.64014)
        (xy 147.929769 102.5454) (xy 147.570231 102.5454) (xy 147.093943 102.64014) (xy 146.690166 102.909935) (xy 146.420371 103.313712)
        (xy 146.325631 103.79) (xy 146.420371 104.266288) (xy 146.690166 104.670065) (xy 147.093943 104.93986) (xy 147.570231 105.0346)
        (xy 147.929769 105.0346) (xy 148.406057 104.93986) (xy 148.809834 104.670065) (xy 149.044 104.319611) (xy 149.044 105.800389)
        (xy 148.809834 105.449935) (xy 148.406057 105.18014) (xy 147.929769 105.0854) (xy 147.570231 105.0854) (xy 147.093943 105.18014)
        (xy 146.690166 105.449935) (xy 146.420371 105.853712) (xy 146.325631 106.33) (xy 146.420371 106.806288) (xy 146.690166 107.210065)
        (xy 147.093943 107.47986) (xy 147.570231 107.5746) (xy 147.929769 107.5746) (xy 148.406057 107.47986) (xy 148.809834 107.210065)
        (xy 149.044 106.859611) (xy 149.044 108.340389) (xy 148.809834 107.989935) (xy 148.406057 107.72014) (xy 147.929769 107.6254)
        (xy 147.570231 107.6254) (xy 147.093943 107.72014) (xy 146.690166 107.989935) (xy 146.420371 108.393712) (xy 146.325631 108.87)
        (xy 146.420371 109.346288) (xy 146.690166 109.750065) (xy 147.093943 110.01986) (xy 147.570231 110.1146) (xy 147.929769 110.1146)
        (xy 148.406057 110.01986) (xy 148.809834 109.750065) (xy 149.044 109.399611) (xy 149.044 110.294) (xy 140.956 110.294)
        (xy 140.956 99.706) (xy 149.044 99.706)
      )
    )
  )
)
